{
    "data": {
        "page": 1,
        "per_page": 6,
        "total": 12,
        "total_pages": 2,
        "data": [
            {
                "id": 1,
                "nombre_producto": "LAVANDA",
                "precio": "70.00",
                "descripcion": "La sonrisa es la mejor respuesta para una mirada",
                "url": "https://i.ibb.co/TK7241j/cinthia-12.png",
                "seccion":"masVendido",
                "categoria": "SHAMPOO"
            },
            {
                "id": 2,
                "nombre_producto": "ROSAS",
                "precio": "70.00",
                "descripcion": "La sonrisa es la mejor respuesta para una mirada",
                "url": "https://i.ibb.co/BspJNHQ/cinthia-10.png",
                "seccion":"masVendido",
                "categoria": "SHAMPOO"
            }            
        ],
        "support": {
            "url": "https://reqres.in/#support-heading",
            "text": "To keep ReqRes free, contributions towards server costs are appreciated!"
        }
    },
    "status": 200,
    "statusText": "",
    "headers": {
        "content-type": "application/json; charset=utf-8"
    },
    "config": {
        "transitional": {
            "silentJSONParsing": true,
            "forcedJSONParsing": true,
            "clarifyTimeoutError": false
        },
        "transformRequest": [
            null
        ],
        "transformResponse": [
            null
        ],
        "timeout": 0,
        "xsrfCookieName": "XSRF-TOKEN",
        "xsrfHeaderName": "X-XSRF-TOKEN",
        "maxContentLength": -1,
        "maxBodyLength": -1,
        "env": {
            "FormData": null
        },
        "headers": {
            "Accept": "application/json, text/plain, */*"
        },
        "method": "get",
        "url": "https://reqres.in/api/users?delay=3",
        "responseType": "stream"
    },
    "request": {}
}