{
    "data": {
        "page": 1,
        "per_page": 6,
        "total": 12,
        "total_pages": 2,
        "data": [
            {
                "id": 1,
                "nombre_producto": "SHAMPOO DE CALÉNDULA",
                "precio": "$50.00",
                "descripción": "La caléndula contiene propiedades hidratantes ideales para cueros cabelludos sensibles. Además, favorece el crecimiento del cabello",
                "url": "https://i.ibb.co/BspJNHQ/cinthia-10.png",
                "sección":"catálogo",
                "categoría": "jabón"
            },
            {
                "id":2,
                "nombre_producto": "SHAMPOO DE JAMAICA",
                "precio": "$70.00",
                "descripción": "La jamaica es ideal para evitar la caída del cabello quebradizo. Además, repara puntas abiertas.",
                "url": "https://i.ibb.co/Trymmtc/cinthia.png",
                "sección":"catálogo",
                "categoría": "jabón"
            },
            {
                "id": 3,
                "nombre_producto": "SHAMPOO DE ROMERO",
                "precio": "70.00",
                "descripción": "La sonrisa es la mejor respuesta para una mirada",
                "url": "https://i.ibb.co/mqHGPTy/cinthia-14.png",
                "sección":"catálogo",
                "categoría": "shampoo"
            },
            {
                "id": 4,
                "nombre_producto": "SHAMPOO DE ESENCIA CAFÉ",
                "precio": "70.00",
                "descripción": "La sonrisa es la mejor respuesta para una mirada",
                "url": "https://i.ibb.co/qF1D64p/cinthia-11.png",
                "sección":"catálogo",
                "categoría": "desodorante"
            },
            {
                "id": 5,
                "nombre_producto": "SHAMPOO DE FRUTOS ROJOS",
                "precio": "70.00",
                "descripción": "La sonrisa es la mejor respuesta para una mirada",
                "url": "https://i.ibb.co/w7KrDtS/cinthia-7.png",
                "sección":"catálogo",
                "categoría": "crema"
            },
            {
                "id": 8,
                "nombre_producto": "SHAMPOO DE LAVANDA",
                "precio": "70.00",
                "descripción": "La sonrisa es la mejor respuesta para una mirada",
                "url": "https://i.ibb.co/Drbnk9n/cinthia-4.png",
                "sección":"catálogo",
                "categoría": "jabón"
            },
            {
                "id": 9,
                "nombre_producto": "SHAMPOO DE ROSAS",
                "precio": "70.00",
                "descripción": "La sonrisa es la mejor respuesta para una mirada",
                "url": "https://i.ibb.co/TK7241j/cinthia-12.png",
                "sección":"catálogo",
                "categoría": "jabón"
            }
        ],
        "support": {
            "url": "https://reqres.in/#support-heading",
            "text": "To keep ReqRes free, contributions towards server costs are appreciated!"
        }
    },
    "status": 200,
    "statusText": "",
    "headers": {
        "content-type": "application/json; charset=utf-8"
    },
    "config": {
        "transitional": {
            "silentJSONParsing": true,
            "forcedJSONParsing": true,
            "clarifyTimeoutError": false
        },
        "transformRequest": [
            null
        ],
        "transformResponse": [
            null
        ],
        "timeout": 0,
        "xsrfCookieName": "XSRF-TOKEN",
        "xsrfHeaderName": "X-XSRF-TOKEN",
        "maxContentLength": -1,
        "maxBodyLength": -1,
        "env": {
            "FormData": null
        },
        "headers": {
            "Accept": "application/json, text/plain, */*"
        },
        "method": "get",
        "url": "https://reqres.in/api/users?delay=3",
        "responseType": "stream"
    },
    "request": {}
}