{
    "data": {
        "page": 1,
        "per_page": 6,
        "total": 12,
        "total_pages": 2,
        "data": [
            {
                "id":6,
                "nombre_producto": "Producto 1 Mas vendido",
                "precio": "$60.00",
                "descripción": "Que un día nublado no arruine tu 'mood'. ¡Conviértete en tu propio sol!",
                "url": "https://i.ibb.co/sqjvssw/cal-ndula-1.jpg",
                "seccion":"masVendido"
            },
            {
                "id":7,
                "nombre_producto": "Producto 2 mas Vendido",
                "precio": "$55.00",
                "descripción": "No dejes que el miedo te impida ser feliz",
                "url": "https://i.ibb.co/sqjvssw/cal-ndula-1.jpg",
                "seccion":"masVendido"
            }
            
        ],
        "support": {
            "url": "https://reqres.in/#support-heading",
            "text": "To keep ReqRes free, contributions towards server costs are appreciated!"
        }
    },
    "status": 200,
    "statusText": "",
    "headers": {
        "content-type": "application/json; charset=utf-8"
    },
    "config": {
        "transitional": {
            "silentJSONParsing": true,
            "forcedJSONParsing": true,
            "clarifyTimeoutError": false
        },
        "transformRequest": [
            null
        ],
        "transformResponse": [
            null
        ],
        "timeout": 0,
        "xsrfCookieName": "XSRF-TOKEN",
        "xsrfHeaderName": "X-XSRF-TOKEN",
        "maxContentLength": -1,
        "maxBodyLength": -1,
        "env": {
            "FormData": null
        },
        "headers": {
            "Accept": "application/json, text/plain, */*"
        },
        "method": "get",
        "url": "https://reqres.in/api/users?delay=3",
        "responseType": "stream"
    },
    "request": {}
}